id;name;address;phone;email
1;Assistant;Market;"+ ))( 1  ) )-1(";"{3R}hR@Ff\%.XnJR1"
2;Extended;Pa'anga azure online;"-(2)- 6)0(6())-";"m>@=m.p^)h"
3;violet Licensed Kids;Peso;"+) ))(0 7 -)-1)";"MYsVUi@+b[.A(+38f"
4;Refined Chine relationships;fuchsia override;"8 --)((6--(3-";"Y@5'-II.>'5Gy`"
5;de;overriding Jordan multi-tasking;"8(   ) 1 0)) ";"%p2}@kbs.[v6S"
6;parsing;New c;"+8)((-)((--2-7";"S2GfY$@WEh'E.x"
7;user indexing monitor;salmon Executif deliverables;"+-13))()((())2-";"*D_h@[N9:b.S"
8;XSS de deposit;de up;"+()) - ()  -)(-";"XLWd@*Xw.G("
9;grey parsing payment;bXX;"+0 ------)3(( ";",}9V@Liz.&J}o`"
10;Avon;open-source Health;"+-4 )(( (( (-";"8@P5\u`I.KnV"
